<?xml version="1.0" encoding="iso-8859-1"  standalone="no"?>
<!DOCTYPE svg PUBLIC "-//W3C//DTD SVG 1.1//EN"
 "http://www.w3.org/Graphics/SVG/1.1/DTD/svg11.dtd">
<svg 
 width="700" height="400"
 viewBox="0 0 700 400"
 xmlns="http://www.w3.org/2000/svg"
 xmlns:xlink="http://www.w3.org/1999/xlink"
>

<title>Gnuplot</title>
<desc>Produced by GNUPLOT 5.0 patchlevel 3 </desc>

<g id="gnuplot_canvas">

<rect x="0" y="0" width="700" height="400" fill="none"/>
<defs>

	<circle id='gpDot' r='0.5' stroke-width='0.5'/>
	<path id='gpPt0' stroke-width='0.095' stroke='currentColor' d='M-1,0 h2 M0,-1 v2'/>
	<path id='gpPt1' stroke-width='0.095' stroke='currentColor' d='M-1,-1 L1,1 M1,-1 L-1,1'/>
	<path id='gpPt2' stroke-width='0.095' stroke='currentColor' d='M-1,0 L1,0 M0,-1 L0,1 M-1,-1 L1,1 M-1,1 L1,-1'/>
	<rect id='gpPt3' stroke-width='0.095' stroke='currentColor' x='-1' y='-1' width='2' height='2'/>
	<rect id='gpPt4' stroke-width='0.095' stroke='currentColor' fill='currentColor' x='-1' y='-1' width='2' height='2'/>
	<circle id='gpPt5' stroke-width='0.095' stroke='currentColor' cx='0' cy='0' r='1'/>
	<use xlink:href='#gpPt5' id='gpPt6' fill='currentColor' stroke='none'/>
	<path id='gpPt7' stroke-width='0.095' stroke='currentColor' d='M0,-1.33 L-1.33,0.67 L1.33,0.67 z'/>
	<use xlink:href='#gpPt7' id='gpPt8' fill='currentColor' stroke='none'/>
	<use xlink:href='#gpPt7' id='gpPt9' stroke='currentColor' transform='rotate(180)'/>
	<use xlink:href='#gpPt9' id='gpPt10' fill='currentColor' stroke='none'/>
	<use xlink:href='#gpPt3' id='gpPt11' stroke='currentColor' transform='rotate(45)'/>
	<use xlink:href='#gpPt11' id='gpPt12' fill='currentColor' stroke='none'/>
	<path id='gpPt13' stroke-width='0.095' stroke='currentColor' d='M0,1.330 L1.265,0.411 L0.782,-1.067 L-0.782,-1.076 L-1.265,0.411 z'/>
	<use xlink:href='#gpPt13' id='gpPt14' fill='currentColor' stroke='none'/>
	<filter id='textbox' filterUnits='objectBoundingBox' x='0' y='0' height='1' width='1'>
	  <feFlood flood-color='white' flood-opacity='1' result='bgnd'/>
	  <feComposite in='SourceGraphic' in2='bgnd' operator='atop'/>
	</filter>
	<filter id='greybox' filterUnits='objectBoundingBox' x='0' y='0' height='1' width='1'>
	  <feFlood flood-color='lightgrey' flood-opacity='1' result='grey'/>
	  <feComposite in='SourceGraphic' in2='grey' operator='atop'/>
	</filter>
</defs>
<g fill="none" color="white" stroke="black" stroke-width="1.00" stroke-linecap="butt" stroke-linejoin="miter">
</g>
<g fill="none" color="black" stroke="currentColor" stroke-width="1.00" stroke-linecap="butt" stroke-linejoin="miter">
</g>
<g fill="none" color="gray" stroke="currentColor" stroke-width="1.00" stroke-linecap="butt" stroke-linejoin="miter">
	<path stroke='rgb(175, 175, 175)' stroke-dasharray='2,4' class="gridline"  d='M123.8,295.0 L641.4,295.0  '/></g>
<g fill="none" color="black" stroke="currentColor" stroke-width="1.00" stroke-linecap="butt" stroke-linejoin="miter">
	<path stroke='black'  d='M123.8,295.0 L144.8,295.0 M641.4,295.0 L620.4,295.0  '/>	<g transform="translate(104.3,305.5)" stroke="none" fill="black" font-family="Times New Roman" font-size="28.00"  text-anchor="end">
		<text><tspan font-family="Times New Roman" >0.0</tspan></text>
	</g>
</g>
<g fill="none" color="black" stroke="currentColor" stroke-width="1.00" stroke-linecap="butt" stroke-linejoin="miter">
</g>
<g fill="none" color="gray" stroke="currentColor" stroke-width="1.00" stroke-linecap="butt" stroke-linejoin="miter">
	<path stroke='rgb(175, 175, 175)' stroke-dasharray='2,4' class="gridline"  d='M123.8,243.8 L641.4,243.8  '/></g>
<g fill="none" color="black" stroke="currentColor" stroke-width="1.00" stroke-linecap="butt" stroke-linejoin="miter">
	<path stroke='black'  d='M123.8,243.8 L144.8,243.8 M641.4,243.8 L620.4,243.8  '/>	<g transform="translate(104.3,254.3)" stroke="none" fill="black" font-family="Times New Roman" font-size="28.00"  text-anchor="end">
		<text><tspan font-family="Times New Roman" >0.7</tspan></text>
	</g>
</g>
<g fill="none" color="black" stroke="currentColor" stroke-width="1.00" stroke-linecap="butt" stroke-linejoin="miter">
</g>
<g fill="none" color="gray" stroke="currentColor" stroke-width="1.00" stroke-linecap="butt" stroke-linejoin="miter">
	<path stroke='rgb(175, 175, 175)' stroke-dasharray='2,4' class="gridline"  d='M123.8,192.6 L641.4,192.6  '/></g>
<g fill="none" color="black" stroke="currentColor" stroke-width="1.00" stroke-linecap="butt" stroke-linejoin="miter">
	<path stroke='black'  d='M123.8,192.6 L144.8,192.6 M641.4,192.6 L620.4,192.6  '/>	<g transform="translate(104.3,203.1)" stroke="none" fill="black" font-family="Times New Roman" font-size="28.00"  text-anchor="end">
		<text><tspan font-family="Times New Roman" >1.4</tspan></text>
	</g>
</g>
<g fill="none" color="black" stroke="currentColor" stroke-width="1.00" stroke-linecap="butt" stroke-linejoin="miter">
</g>
<g fill="none" color="gray" stroke="currentColor" stroke-width="1.00" stroke-linecap="butt" stroke-linejoin="miter">
	<path stroke='rgb(175, 175, 175)' stroke-dasharray='2,4' class="gridline"  d='M123.8,141.5 L641.4,141.5  '/></g>
<g fill="none" color="black" stroke="currentColor" stroke-width="1.00" stroke-linecap="butt" stroke-linejoin="miter">
	<path stroke='black'  d='M123.8,141.5 L144.8,141.5 M641.4,141.5 L620.4,141.5  '/>	<g transform="translate(104.3,152.0)" stroke="none" fill="black" font-family="Times New Roman" font-size="28.00"  text-anchor="end">
		<text><tspan font-family="Times New Roman" >2.1</tspan></text>
	</g>
</g>
<g fill="none" color="black" stroke="currentColor" stroke-width="1.00" stroke-linecap="butt" stroke-linejoin="miter">
</g>
<g fill="none" color="gray" stroke="currentColor" stroke-width="1.00" stroke-linecap="butt" stroke-linejoin="miter">
	<path stroke='rgb(175, 175, 175)' stroke-dasharray='2,4' class="gridline"  d='M123.8,90.3 L641.4,90.3  '/></g>
<g fill="none" color="black" stroke="currentColor" stroke-width="1.00" stroke-linecap="butt" stroke-linejoin="miter">
	<path stroke='black'  d='M123.8,90.3 L144.8,90.3 M641.4,90.3 L620.4,90.3  '/>	<g transform="translate(104.3,100.8)" stroke="none" fill="black" font-family="Times New Roman" font-size="28.00"  text-anchor="end">
		<text><tspan font-family="Times New Roman" >2.8</tspan></text>
	</g>
</g>
<g fill="none" color="black" stroke="currentColor" stroke-width="1.00" stroke-linecap="butt" stroke-linejoin="miter">
</g>
<g fill="none" color="gray" stroke="currentColor" stroke-width="1.00" stroke-linecap="butt" stroke-linejoin="miter">
	<path stroke='rgb(175, 175, 175)' stroke-dasharray='2,4' class="gridline"  d='M123.8,39.1 L641.4,39.1  '/></g>
<g fill="none" color="black" stroke="currentColor" stroke-width="1.00" stroke-linecap="butt" stroke-linejoin="miter">
	<path stroke='black'  d='M123.8,39.1 L144.8,39.1 M641.4,39.1 L620.4,39.1  '/>	<g transform="translate(104.3,49.6)" stroke="none" fill="black" font-family="Times New Roman" font-size="28.00"  text-anchor="end">
		<text><tspan font-family="Times New Roman" >3.5</tspan></text>
	</g>
</g>
<g fill="none" color="black" stroke="currentColor" stroke-width="1.00" stroke-linecap="butt" stroke-linejoin="miter">
</g>
<g fill="none" color="gray" stroke="currentColor" stroke-width="1.00" stroke-linecap="butt" stroke-linejoin="miter">
	<path stroke='rgb(175, 175, 175)' stroke-dasharray='2,4' class="gridline"  d='M532.1,295.0 L532.1,39.1  '/></g>
<g fill="none" color="black" stroke="currentColor" stroke-width="1.00" stroke-linecap="butt" stroke-linejoin="miter">
	<path stroke='black'  d='M532.1,295.0 L532.1,274.0 M532.1,39.1 L532.1,60.1  '/>	<g transform="translate(532.1,347.5)" stroke="none" fill="black" font-family="Times New Roman" font-size="28.00"  text-anchor="middle">
		<text><tspan font-family="Times New Roman" >8</tspan></text>
	</g>
</g>
<g fill="none" color="black" stroke="currentColor" stroke-width="1.00" stroke-linecap="butt" stroke-linejoin="miter">
</g>
<g fill="none" color="gray" stroke="currentColor" stroke-width="1.00" stroke-linecap="butt" stroke-linejoin="miter">
	<path stroke='rgb(175, 175, 175)' stroke-dasharray='2,4' class="gridline"  d='M393.7,295.0 L393.7,39.1  '/></g>
<g fill="none" color="black" stroke="currentColor" stroke-width="1.00" stroke-linecap="butt" stroke-linejoin="miter">
	<path stroke='black'  d='M393.7,295.0 L393.7,274.0 M393.7,39.1 L393.7,60.1  '/>	<g transform="translate(393.7,347.5)" stroke="none" fill="black" font-family="Times New Roman" font-size="28.00"  text-anchor="middle">
		<text><tspan font-family="Times New Roman" >4</tspan></text>
	</g>
</g>
<g fill="none" color="black" stroke="currentColor" stroke-width="1.00" stroke-linecap="butt" stroke-linejoin="miter">
</g>
<g fill="none" color="gray" stroke="currentColor" stroke-width="1.00" stroke-linecap="butt" stroke-linejoin="miter">
	<path stroke='rgb(175, 175, 175)' stroke-dasharray='2,4' class="gridline"  d='M255.3,295.0 L255.3,39.1  '/></g>
<g fill="none" color="black" stroke="currentColor" stroke-width="1.00" stroke-linecap="butt" stroke-linejoin="miter">
	<path stroke='black'  d='M255.3,295.0 L255.3,274.0 M255.3,39.1 L255.3,60.1  '/>	<g transform="translate(255.3,347.5)" stroke="none" fill="black" font-family="Times New Roman" font-size="28.00"  text-anchor="middle">
		<text><tspan font-family="Times New Roman" >1</tspan></text>
	</g>
</g>
<g fill="none" color="black" stroke="currentColor" stroke-width="1.00" stroke-linecap="butt" stroke-linejoin="miter">
</g>
<g fill="none" color="black" stroke="currentColor" stroke-width="1.00" stroke-linecap="butt" stroke-linejoin="miter">
	<path stroke='black'  d='M123.8,39.1 L123.8,295.0 L641.4,295.0 L641.4,39.1 L123.8,39.1 Z  '/></g>
<g fill="none" color="black" stroke="currentColor" stroke-width="1.00" stroke-linecap="butt" stroke-linejoin="miter">
	<g transform="translate(41.2,167.1) rotate(270)" stroke="none" fill="black" font-family="Times New Roman" font-size="28.00"  text-anchor="middle">
		<text><tspan font-family="Times New Roman" >Efficiency</tspan></text>
	</g>
</g>
<g fill="none" color="black" stroke="currentColor" stroke-width="1.00" stroke-linecap="butt" stroke-linejoin="miter">
	<g transform="translate(382.6,381.1)" stroke="none" fill="black" font-family="Times New Roman" font-size="28.00"  text-anchor="middle">
		<text><tspan font-family="Times New Roman" >Feedback frequency</tspan></text>
	</g>
</g>
<g fill="none" color="black" stroke="currentColor" stroke-width="1.00" stroke-linecap="butt" stroke-linejoin="miter">
</g>
	<g id="gnuplot_plot_1" ><title>EXPECTATION</title>
<g fill="none" color="black" stroke="currentColor" stroke-width="1.00" stroke-linecap="butt" stroke-linejoin="miter">
	<defs>
		<pattern id='gpPat1' patternUnits='userSpaceOnUse' x='0' y='0' width='8' height='8'>
			<path style='fill:none; stroke:rgb(0,0,0)' d='M-2,0 L4,12 M0,-4 L8,12 M4,-4 L10,8'/>
		</pattern>
	</defs>
	<g stroke='none' shape-rendering='crispEdges'>
		<polygon  fill = 'url(#gpPat1)' points = '565.3,295.0 579.2,295.0 579.2,287.2 565.3,287.2 '/>
	</g>
	<path stroke='rgb(  0,   0,   0)'  d='M579.1,295.0 L579.1,287.3 L565.3,287.3 L565.3,295.0 L579.1,295.0 Z  '/>	<g stroke='none' shape-rendering='crispEdges'>
		<polygon  fill = 'url(#gpPat1)' points = '426.9,295.0 440.8,295.0 440.8,287.2 426.9,287.2 '/>
	</g>
	<path stroke='rgb(  0,   0,   0)'  d='M440.7,295.0 L440.7,287.3 L426.9,287.3 L426.9,295.0 L440.7,295.0 Z  '/>	<g stroke='none' shape-rendering='crispEdges'>
		<polygon  fill = 'url(#gpPat1)' points = '288.5,295.0 302.4,295.0 302.4,287.2 288.5,287.2 '/>
	</g>
	<path stroke='rgb(  0,   0,   0)'  d='M302.3,295.0 L302.3,287.3 L288.5,287.3 L288.5,295.0 L302.3,295.0 Z  '/></g>
	</g>
	<g id="gnuplot_plot_2" ><title>gnuplot_plot_2</title>
<g fill="none" color="black" stroke="currentColor" stroke-width="1.00" stroke-linecap="butt" stroke-linejoin="miter">
	<path stroke='rgb(  0,   0,   0)'  d='M572.2,287.5 L572.2,287.1 M561.7,287.5 L582.7,287.5 M561.7,287.1 L582.7,287.1 M433.8,287.6 L433.8,286.9
		M423.3,287.6 L444.3,287.6 M423.3,286.9 L444.3,286.9 M295.4,287.6 L295.4,287.1 M284.9,287.6 L305.9,287.6
		M284.9,287.1 L305.9,287.1  '/>	<use xlink:href='#gpPt0' transform='translate(572.2,287.3) scale(10.50)' color='rgb(  0,   0,   0)'/>
	<use xlink:href='#gpPt0' transform='translate(433.8,287.3) scale(10.50)' color='rgb(  0,   0,   0)'/>
	<use xlink:href='#gpPt0' transform='translate(295.4,287.3) scale(10.50)' color='rgb(  0,   0,   0)'/>
</g>
	</g>
	<g id="gnuplot_plot_3" ><title>NUMBER_RCVD</title>
<g fill="none" color="black" stroke="currentColor" stroke-width="1.00" stroke-linecap="butt" stroke-linejoin="miter">
	<defs>
		<pattern id='gpPat2' patternUnits='userSpaceOnUse' x='0' y='0' width='8' height='8'>
			<path style='fill:none; stroke:rgb(0,114,178)' d='M0,0 L8,8 M0,8 L8,0'/>
		</pattern>
	</defs>
	<g stroke='none' shape-rendering='crispEdges'>
		<polygon  fill = 'url(#gpPat2)' points = '545.9,295.0 559.8,295.0 559.8,246.6 545.9,246.6 '/>
	</g>
	<path stroke='rgb(  0, 114, 178)'  d='M559.7,295.0 L559.7,246.7 L545.9,246.7 L545.9,295.0 L559.7,295.0 Z  '/>	<g stroke='none' shape-rendering='crispEdges'>
		<polygon  fill = 'url(#gpPat2)' points = '407.5,295.0 421.5,295.0 421.5,222.1 407.5,222.1 '/>
	</g>
	<path stroke='rgb(  0, 114, 178)'  d='M421.4,295.0 L421.4,222.2 L407.5,222.2 L407.5,295.0 L421.4,295.0 Z  '/>	<g stroke='none' shape-rendering='crispEdges'>
		<polygon  fill = 'url(#gpPat2)' points = '269.1,295.0 283.1,295.0 283.1,223.1 269.1,223.1 '/>
	</g>
	<path stroke='rgb(  0, 114, 178)'  d='M283.0,295.0 L283.0,223.2 L269.1,223.2 L269.1,295.0 L283.0,295.0 Z  '/></g>
	</g>
	<g id="gnuplot_plot_4" ><title>gnuplot_plot_4</title>
<g fill="none" color="black" stroke="currentColor" stroke-width="1.00" stroke-linecap="butt" stroke-linejoin="miter">
	<path stroke='rgb(  0,   0,   0)'  d='M552.8,247.4 L552.8,246.1 M542.3,247.4 L563.3,247.4 M542.3,246.1 L563.3,246.1 M414.4,225.5 L414.4,218.8
		M403.9,225.5 L424.9,225.5 M403.9,218.8 L424.9,218.8 M276.0,226.3 L276.0,220.1 M265.5,226.3 L286.5,226.3
		M265.5,220.1 L286.5,220.1  '/>	<use xlink:href='#gpPt0' transform='translate(552.8,246.7) scale(10.50)' color='rgb(  0,   0,   0)'/>
	<use xlink:href='#gpPt0' transform='translate(414.4,222.2) scale(10.50)' color='rgb(  0,   0,   0)'/>
	<use xlink:href='#gpPt0' transform='translate(276.0,223.2) scale(10.50)' color='rgb(  0,   0,   0)'/>
</g>
	</g>
	<g id="gnuplot_plot_5" ><title>PIVOTS</title>
<g fill="none" color="black" stroke="currentColor" stroke-width="1.00" stroke-linecap="butt" stroke-linejoin="miter">
	<defs>
		<pattern id='gpPat3' patternUnits='userSpaceOnUse' x='0' y='0' width='8' height='8'>
			<path style='fill:none; stroke:rgb(0,158,115)' d='M0,0 L8,8 M0,8 L8,0 M0,4 L4,8 L8,4 L4,0 L0,4'/>
		</pattern>
	</defs>
	<g stroke='none' shape-rendering='crispEdges'>
		<polygon  fill = 'url(#gpPat3)' points = '525.1,295.0 539.1,295.0 539.1,274.0 525.1,274.0 '/>
	</g>
	<path stroke='rgb(  0, 158, 115)'  d='M539.0,295.0 L539.0,274.1 L525.1,274.1 L525.1,295.0 L539.0,295.0 Z  '/>	<g stroke='none' shape-rendering='crispEdges'>
		<polygon  fill = 'url(#gpPat3)' points = '386.8,295.0 400.7,295.0 400.7,260.2 386.8,260.2 '/>
	</g>
	<path stroke='rgb(  0, 158, 115)'  d='M400.6,295.0 L400.6,260.3 L386.8,260.3 L386.8,295.0 L400.6,295.0 Z  '/>	<g stroke='none' shape-rendering='crispEdges'>
		<polygon  fill = 'url(#gpPat3)' points = '248.4,295.0 262.3,295.0 262.3,283.4 248.4,283.4 '/>
	</g>
	<path stroke='rgb(  0, 158, 115)'  d='M262.2,295.0 L262.2,283.5 L248.4,283.5 L248.4,295.0 L262.2,295.0 Z  '/></g>
	</g>
	<g id="gnuplot_plot_6" ><title>gnuplot_plot_6</title>
<g fill="none" color="black" stroke="currentColor" stroke-width="1.00" stroke-linecap="butt" stroke-linejoin="miter">
	<path stroke='rgb(  0,   0,   0)'  d='M532.1,274.9 L532.1,273.3 M521.6,274.9 L542.6,274.9 M521.6,273.3 L542.6,273.3 M393.7,261.2 L393.7,259.4
		M383.2,261.2 L404.2,261.2 M383.2,259.4 L404.2,259.4 M255.3,285.8 L255.3,281.2 M244.8,285.8 L265.8,285.8
		M244.8,281.2 L265.8,281.2  '/>	<use xlink:href='#gpPt0' transform='translate(532.1,274.1) scale(10.50)' color='rgb(  0,   0,   0)'/>
	<use xlink:href='#gpPt0' transform='translate(393.7,260.3) scale(10.50)' color='rgb(  0,   0,   0)'/>
	<use xlink:href='#gpPt0' transform='translate(255.3,283.5) scale(10.50)' color='rgb(  0,   0,   0)'/>
</g>
	</g>
	<g id="gnuplot_plot_7" ><title>MIN_MAX</title>
<g fill="none" color="black" stroke="currentColor" stroke-width="1.00" stroke-linecap="butt" stroke-linejoin="miter">
	<defs>
		<pattern id='gpPat4' patternUnits='userSpaceOnUse' x='0' y='0' width='8' height='8'>
			<path style='fill:none; stroke:rgb(229,30,16)' d='M-4,8 L8,-4 M0,12 L12,0'/>
		</pattern>
	</defs>
	<g stroke='none' shape-rendering='crispEdges'>
		<polygon  fill = 'url(#gpPat4)' points = '503.0,295.0 516.9,295.0 516.9,254.8 503.0,254.8 '/>
	</g>
	<path stroke='rgb(229,  30,  16)'  d='M516.8,295.0 L516.8,254.9 L503.0,254.9 L503.0,295.0 L516.8,295.0 Z  '/>	<g stroke='none' shape-rendering='crispEdges'>
		<polygon  fill = 'url(#gpPat4)' points = '364.6,295.0 378.5,295.0 378.5,247.3 364.6,247.3 '/>
	</g>
	<path stroke='rgb(229,  30,  16)'  d='M378.4,295.0 L378.4,247.4 L364.6,247.4 L364.6,295.0 L378.4,295.0 Z  '/>	<g stroke='none' shape-rendering='crispEdges'>
		<polygon  fill = 'url(#gpPat4)' points = '226.2,295.0 240.2,295.0 240.2,260.6 226.2,260.6 '/>
	</g>
	<path stroke='rgb(229,  30,  16)'  d='M240.1,295.0 L240.1,260.7 L226.2,260.7 L226.2,295.0 L240.1,295.0 Z  '/></g>
	</g>
	<g id="gnuplot_plot_8" ><title>gnuplot_plot_8</title>
<g fill="none" color="black" stroke="currentColor" stroke-width="1.00" stroke-linecap="butt" stroke-linejoin="miter">
	<path stroke='rgb(  0,   0,   0)'  d='M509.9,256.4 L509.9,253.3 M499.4,256.4 L520.4,256.4 M499.4,253.3 L520.4,253.3 M371.5,249.4 L371.5,245.4
		M361.0,249.4 L382.0,249.4 M361.0,245.4 L382.0,245.4 M233.1,263.0 L233.1,258.5 M222.6,263.0 L243.6,263.0
		M222.6,258.5 L243.6,258.5  '/>	<use xlink:href='#gpPt0' transform='translate(509.9,254.9) scale(10.50)' color='rgb(  0,   0,   0)'/>
	<use xlink:href='#gpPt0' transform='translate(371.5,247.4) scale(10.50)' color='rgb(  0,   0,   0)'/>
	<use xlink:href='#gpPt0' transform='translate(233.1,260.7) scale(10.50)' color='rgb(  0,   0,   0)'/>
</g>
	</g>
	<g id="gnuplot_plot_9" ><title>CCACK</title>
<g fill="none" color="black" stroke="currentColor" stroke-width="1.00" stroke-linecap="butt" stroke-linejoin="miter">
	<defs>
		<pattern id='gpPat5' patternUnits='userSpaceOnUse' x='0' y='0' width='8' height='8'>
			<path style='fill:none; stroke:rgb(148,0,211)' d='M-4,0 L8,12 M0,-4 L12,8'/>
		</pattern>
	</defs>
	<g stroke='none' shape-rendering='crispEdges'>
		<polygon  fill = 'url(#gpPat5)' points = '482.2,295.0 496.2,295.0 496.2,203.7 482.2,203.7 '/>
	</g>
	<path stroke='rgb(148,   0, 211)'  d='M496.1,295.0 L496.1,203.8 L482.2,203.8 L482.2,295.0 L496.1,295.0 Z  '/>	<g stroke='none' shape-rendering='crispEdges'>
		<polygon  fill = 'url(#gpPat5)' points = '343.8,295.0 357.8,295.0 357.8,213.3 343.8,213.3 '/>
	</g>
	<path stroke='rgb(148,   0, 211)'  d='M357.7,295.0 L357.7,213.4 L343.8,213.4 L343.8,295.0 L357.7,295.0 Z  '/>	<g stroke='none' shape-rendering='crispEdges'>
		<polygon  fill = 'url(#gpPat5)' points = '205.5,295.0 219.4,295.0 219.4,123.3 205.5,123.3 '/>
	</g>
	<path stroke='rgb(148,   0, 211)'  d='M219.3,295.0 L219.3,123.4 L205.5,123.4 L205.5,295.0 L219.3,295.0 Z  '/></g>
	</g>
	<g id="gnuplot_plot_10" ><title>gnuplot_plot_10</title>
<g fill="none" color="black" stroke="currentColor" stroke-width="1.00" stroke-linecap="butt" stroke-linejoin="miter">
	<path stroke='rgb(  0,   0,   0)'  d='M489.2,205.7 L489.2,201.8 M478.7,205.7 L499.7,205.7 M478.7,201.8 L499.7,201.8 M350.8,215.9 L350.8,210.9
		M340.3,215.9 L361.3,215.9 M340.3,210.9 L361.3,210.9 M212.4,126.8 L212.4,120.0 M201.9,126.8 L222.9,126.8
		M201.9,120.0 L222.9,120.0  '/>	<use xlink:href='#gpPt0' transform='translate(489.2,203.8) scale(10.50)' color='rgb(  0,   0,   0)'/>
	<use xlink:href='#gpPt0' transform='translate(350.8,213.4) scale(10.50)' color='rgb(  0,   0,   0)'/>
	<use xlink:href='#gpPt0' transform='translate(212.4,123.4) scale(10.50)' color='rgb(  0,   0,   0)'/>
</g>
	</g>
	<g id="gnuplot_plot_11" ><title>ALL_VECTORS</title>
<g fill="none" color="black" stroke="currentColor" stroke-width="1.00" stroke-linecap="butt" stroke-linejoin="miter">
	<defs>
		<pattern id='gpPat6' patternUnits='userSpaceOnUse' x='0' y='0' width='8' height='8'>
			<path style='fill:none; stroke:rgb(230,159,0)' d='M-2,8 L4,-4 M0,12 L8,-4 M4,12 L10,0'/>
		</pattern>
	</defs>
	<g stroke='none' shape-rendering='crispEdges'>
		<polygon  fill = 'url(#gpPat6)' points = '462.9,295.0 476.8,295.0 476.8,279.3 462.9,279.3 '/>
	</g>
	<path stroke='rgb(230, 159,   0)'  d='M476.7,295.0 L476.7,279.4 L462.9,279.4 L462.9,295.0 L476.7,295.0 Z  '/>	<g stroke='none' shape-rendering='crispEdges'>
		<polygon  fill = 'url(#gpPat6)' points = '324.5,295.0 338.4,295.0 338.4,274.4 324.5,274.4 '/>
	</g>
	<path stroke='rgb(230, 159,   0)'  d='M338.3,295.0 L338.3,274.5 L324.5,274.5 L324.5,295.0 L338.3,295.0 Z  '/></g>
	</g>
	<g id="gnuplot_plot_12" ><title>gnuplot_plot_12</title>
<g fill="none" color="black" stroke="currentColor" stroke-width="1.00" stroke-linecap="butt" stroke-linejoin="miter">
	<path stroke='rgb(  0,   0,   0)'  d='M469.8,280.3 L469.8,278.5 M459.3,280.3 L480.3,280.3 M459.3,278.5 L480.3,278.5 M331.4,276.0 L331.4,273.0
		M320.9,276.0 L341.9,276.0 M320.9,273.0 L341.9,273.0  '/>	<use xlink:href='#gpPt0' transform='translate(469.8,279.4) scale(10.50)' color='rgb(  0,   0,   0)'/>
	<use xlink:href='#gpPt0' transform='translate(331.4,274.5) scale(10.50)' color='rgb(  0,   0,   0)'/>
</g>
	</g>
<g fill="none" color="white" stroke="rgb(  0,   0,   0)" stroke-width="2.00" stroke-linecap="butt" stroke-linejoin="miter">
</g>
<g fill="none" color="black" stroke="currentColor" stroke-width="2.00" stroke-linecap="butt" stroke-linejoin="miter">
</g>
<g fill="none" color="black" stroke="black" stroke-width="1.00" stroke-linecap="butt" stroke-linejoin="miter">
</g>
<g fill="none" color="black" stroke="currentColor" stroke-width="1.00" stroke-linecap="butt" stroke-linejoin="miter">
	<path stroke='black'  d='M123.8,39.1 L123.8,295.0 L641.4,295.0 L641.4,39.1 L123.8,39.1 Z  '/></g>
<g fill="none" color="black" stroke="currentColor" stroke-width="1.00" stroke-linecap="butt" stroke-linejoin="miter">
</g>
</g>
</svg>

